<?xml version="1.0" encoding="utf-8"?>
<!-- Generator: Adobe Illustrator 27.8.1, SVG Export Plug-In . SVG Version: 6.00 Build 0)  -->
<svg version="1.1" id="Capa_1" xmlns="http://www.w3.org/2000/svg" xmlns:xlink="http://www.w3.org/1999/xlink" x="0px" y="0px"
	 viewBox="0 0 252 126" style="enable-background:new 0 0 252 126;" xml:space="preserve">
<style type="text/css">
	.st0{fill:#FFFFFF;}
	.st1{fill:#27292E;}
	.st2{fill:#7EFF71;}
	.st3{fill:#C336FF;}
</style>
<g id="a62d6a6e-3063-49c5-871a-1c095472ac8b">
	<g id="e236210f-fb40-4388-bb2c-0f1cb9114ffc">
		<path class="st0" d="M252,0c0,69.6-56.4,126-126,126S0,69.6,0,0"/>
		<path class="st1" d="M74.4,41.3h100c2,0,3.7,1.7,3.7,3.7v24.7c0,2-1.7,3.7-3.7,3.7h-100c-2,0-3.7-1.7-3.7-3.7V45.1
			C70.7,43,72.4,41.3,74.4,41.3z"/>
		<path class="st2" d="M84.3,65.7c-1.5-0.8-2.7-2-3.6-3.5c-1.8-3.1-1.8-6.8,0-9.9c0.9-1.5,2.1-2.7,3.6-3.5c2.9-1.5,6.3-1.7,9.3-0.4
			c1.2,0.5,2.3,1.3,3.2,2.3l-2.2,2.1c-1.3-1.4-3.1-2.2-5-2.2c-1.2,0-2.4,0.3-3.5,0.8c-1,0.5-1.8,1.3-2.4,2.3c-1.1,2.1-1.1,4.7,0,6.8
			c0.6,1,1.4,1.8,2.4,2.4c1.1,0.6,2.3,0.9,3.5,0.8c1.9,0,3.7-0.8,5-2.2l2.2,2.2c-0.9,1-2,1.8-3.2,2.3c-1.3,0.5-2.8,0.8-4.2,0.8
			C87.6,66.9,85.8,66.5,84.3,65.7z"/>
		<path class="st2" d="M101.9,65.9c-1.1-0.6-2.1-1.5-2.7-2.6c-1.3-2.4-1.3-5.2,0-7.6c0.7-1.1,1.6-2,2.7-2.6c2.5-1.3,5.4-1.3,7.9,0
			c1.1,0.6,2.1,1.5,2.7,2.6c1.3,2.4,1.3,5.2,0,7.6c-0.6,1.1-1.6,2-2.7,2.6C107.3,67.1,104.4,67.1,101.9,65.9z M108.9,62.7
			c1.6-1.9,1.6-4.6,0-6.5c-0.8-0.8-1.9-1.3-3.1-1.2c-1.1,0-2.2,0.4-3,1.2c-1.6,1.9-1.6,4.6,0,6.5c0.8,0.8,1.9,1.3,3,1.2
			C107,64,108.1,63.5,108.9,62.7L108.9,62.7z"/>
		<path class="st2" d="M129.1,53.7c1.2,1.3,1.8,3,1.6,4.7v8.2h-3.3v-7.8c0.1-1-0.2-2-0.9-2.8c-0.7-0.7-1.6-1-2.5-1
			c-1.1-0.1-2.1,0.3-2.9,1.1c-0.8,0.9-1.2,2.1-1.1,3.3v7.2h-3.4V52.3h3.2v1.8c0.6-0.7,1.3-1.2,2.1-1.5c0.9-0.4,1.9-0.5,2.8-0.5
			C126.4,52.1,128,52.6,129.1,53.7z"/>
		<path class="st2" d="M138.8,51.5v0.9h3.9v2.7h-3.8v11.5h-3.4V55.1h-2.4v-2.7h2.4v-0.9c-0.1-1.3,0.4-2.7,1.3-3.6
			c1.9-1.5,4.6-1.8,6.8-0.5l-0.9,2.5c-0.5-0.4-1.2-0.6-1.9-0.6C139.5,49.2,138.8,50,138.8,51.5z"/>
		<path class="st3" d="M141.6,66.6H155v2h-13.4V66.6z"/>
		<path class="st3" d="M148.8,66.6h13.4v2h-13.4V66.6z"/>
		<path class="st2" d="M163.8,65.9c-0.7-0.7-1-1.6-1-2.5c0-0.9,0.3-1.8,1-2.5c1.5-1.3,3.6-1.3,5.1,0c0.7,0.6,1,1.5,1,2.5
			c0,0.9-0.3,1.9-1,2.5C167.4,67.2,165.2,67.2,163.8,65.9z"/>
		<polygon class="st1" points="77.6,35.8 74.1,35.8 74.1,18.7 73.9,18.8 73.6,19.1 71.1,20.8 71.1,17.2 77.6,13.3 		"/>
		<path class="st1" d="M87.7,36.3c-3.7,0-7.4-2.4-7.4-7.6v-8c0-5.3,3.7-7.6,7.4-7.6s7.3,2.3,7.3,7.6v8C95,34,91.3,36.3,87.7,36.3
			 M87.6,16.3c-2.1-0.1-3.8,1.6-3.9,3.7c0,0.1,0,0.3,0,0.4V29c-0.1,2.1,1.5,4,3.7,4.1c2.1,0.1,4-1.5,4.1-3.7c0-0.1,0-0.3,0-0.4v-8.6
			c0.2-2.1-1.4-3.9-3.4-4.1C87.9,16.3,87.8,16.3,87.6,16.3"/>
		<path class="st1" d="M103.7,35.8h-3.5V13.5h9.6c4.7,0,7.9,3,7.9,7.5s-3.2,7.5-7.9,7.5h-6.1V35.8z M103.7,16.8v8.5h5.8
			c3.5,0,4.7-2.3,4.7-4.2s-1.2-4.2-4.7-4.2L103.7,16.8z"/>
		<rect x="119.5" y="18.3" class="st1" width="3.5" height="17.5"/>
		<path class="st1" d="M121.2,12.8c-1.1,0-2,0.9-2,2s0.9,2,2,2s2-0.9,2-2S122.4,12.8,121.2,12.8z"/>
		<path class="st1" d="M134.9,17.9c-2-0.1-3.9,0.9-5,2.6c-0.3,0.4-0.5,0.8-0.7,1.3v-3.4h-3.5v17.5h3.5V26c-0.2-2.4,1.6-4.4,3.9-4.6
			c0.2,0,0.4,0,0.6,0c2.9,0,4.4,1.6,4.4,4.7v9.7h3.5V25.2C141.6,21.1,138.6,17.9,134.9,17.9z"/>
		<path class="st1" d="M153.1,18c-5-0.2-9.3,3.7-9.6,8.7c-0.2,5,3.7,9.3,8.7,9.6c0.3,0,0.6,0,0.9,0l0,0c3-0.1,5.9-1.5,7.8-3.9
			l0.1-0.1l-2.8-1.6l-0.1,0.1c-1.2,1.6-3.1,2.5-5.1,2.6c-2.9,0.1-5.3-2-5.7-4.9v-0.3h14.8v-0.5C162.1,21,156.9,18,153.1,18z
			 M147.3,25.5l0.1-0.3c0.5-2.5,2.7-4.4,5.3-4.3c2.6,0,4.9,1.8,5.5,4.3l0.1,0.3L147.3,25.5z"/>
		<path class="st1" d="M173.5,25.9l-3.9-0.7c-2.2-0.4-2.4-1.3-2.4-2c0-1.6,1.7-2.4,3.4-2.4c1.7,0.1,3.3,0.7,4.6,1.8l0.2,0.1l2-2.4
			l-0.2-0.1c-1.9-1.4-4.2-2.2-6.6-2.2c-4.5,0-6.8,2.9-6.8,5.7c0,2.3,1.1,4,6.3,4.9l2.2,0.4c1.6,0.3,2.4,1,2.4,2.2
			c0,1.2-1.5,2.4-3.7,2.4c-2-0.1-4-1-5.4-2.4l-0.2-0.2l-2.4,2.4l0.2,0.2c2.1,1.8,4.8,2.8,7.6,2.8c5.1,0,7.4-3,7.4-5.9
			C178.1,27.9,176.6,26.5,173.5,25.9z"/>
	</g>
</g>
</svg>
